…
## Observations: 1,329
## Variables: 6
## $ sp           <chr> "Anas platyrhynchos", "Anas platyrhynchos", "Anas...
## $ id           <int> 4189, 4189, 4189, 4189, 4189, 4189, 4189, 4189, 4...
## $ timestamp    <dttm> 2015-01-09 00:02:10, 2015-01-09 11:59:39, 2015-0...
## $ utm_easting  <dbl> 421316.4, 421453.5, 421465.0, 421495.0, 421425.7,...
## $ utm_northing <dbl> 3173161, 3172491, 3172500, 3172844, 3172473, 3172...
## $ utm_zone     <dbl> 50, 50, 50, 50, 50, 50, 50, 50, 50, 50, 50, 50, 5...

Anas platyrhynchosとはマガモのようです。データはアヒルかもしれません。 1300レコードほどありますが、何個体かいそうです。確認してみましょう。

dat %>% distinct(id)

## # A tibble: 39 × 1
##       id
##    <int>
## 1   4189
## 2   4135
## 3   4181
## 4   4152
## 5   4173
## 6   4176
## 7   4159
## 8   4156
## 9   4171
## 10  4182
## # ... with 29 more rows
…
